…
``` r
pols
```

    ## # A tibble: 822 x 9
    ##    year  month gov_gop sen_gop rep_gop gov_dem sen_dem rep_dem president
    ##    <chr> <chr>   <dbl>   <dbl>   <dbl>   <dbl>   <dbl>   <dbl> <chr>    
    ##  1 1947  Jan        23      51     253      23      45     198 dem      
    ##  2 1947  Feb        23      51     253      23      45     198 dem      
    ##  3 1947  Mar        23      51     253      23      45     198 dem      
    ##  4 1947  Apr        23      51     253      23      45     198 dem      
    ##  5 1947  May        23      51     253      23      45     198 dem      
    ##  6 1947  Jun        23      51     253      23      45     198 dem      
    ##  7 1947  Jul        23      51     253      23      45     198 dem      
    ##  8 1947  Aug        23      51     253      23      45     198 dem      
    ##  9 1947  Sep        23      51     253      23      45     198 dem      
    ## 10 1947  Oct        23      51     253      23      45     198 dem      
    ## # … with 812 more rows
…
    ## Parsed with column specification:
    ## cols(
    ##   date = col_character(),
    ##   close = col_double()
    ## )

``` r
snp
```

    ## # A tibble: 787 x 3
    ##    year  month close
    ##    <chr> <chr> <dbl>
    ##  1 2015  Jul   2080.
    ##  2 2015  Jun   2063.
    ##  3 2015  May   2107.
    ##  4 2015  Apr   2086.
    ##  5 2015  Mar   2068.
    ##  6 2015  Feb   2104.
    ##  7 2015  Jan   1995.
    ##  8 2014  Dec   2059.
    ##  9 2014  Nov   2068.
    ## 10 2014  Oct   2018.
    ## # … with 777 more rows
…
``` r
unemployment
```

    ## # A tibble: 810 x 3
    ##    year  month unemployment_rate
    ##    <chr> <chr>             <dbl>
    ##  1 1948  Jan                 3.4
    ##  2 1948  Feb                 3.8
    ##  3 1948  Mar                 4  
    ##  4 1948  Apr                 3.9
    ##  5 1948  May                 3.5
    ##  6 1948  Jun                 3.6
    ##  7 1948  Jul                 3.6
    ##  8 1948  Aug                 3.9
    ##  9 1948  Sep                 3.8
    ## 10 1948  Oct                 3.7
    ## # … with 800 more rows

## Join the Datasets Pols and SNP

``` r
pols_snp = 
  left_join(pols, snp, by = c("year", "month"))
pols_snp
```

    ## # A tibble: 822 x 10
    ##    year  month gov_gop sen_gop rep_gop gov_dem sen_dem rep_dem president
    ##    <chr> <chr>   <dbl>   <dbl>   <dbl>   <dbl>   <dbl>   <dbl> <chr>    
    ##  1 1947  Jan        23      51     253      23      45     198 dem      
    ##  2 1947  Feb        23      51     253      23      45     198 dem      
    ##  3 1947  Mar        23      51     253      23      45     198 dem      
    ##  4 1947  Apr        23      51     253      23      45     198 dem      
    ##  5 1947  May        23      51     253      23      45     198 dem      
    ##  6 1947  Jun        23      51     253      23      45     198 dem      
    ##  7 1947  Jul        23      51     253      23      45     198 dem      
    ##  8 1947  Aug        23      51     253      23      45     198 dem      
    ##  9 1947  Sep        23      51     253      23      45     198 dem      
    ## 10 1947  Oct        23      51     253      23      45     198 dem      
    ## # … with 812 more rows, and 1 more variable: close <dbl>

## Join the Datasets Pols\_SNP and Unemployment

``` r
pols_snp_unemployment = 
  left_join(pols_snp, unemployment, by = c("year", "month"))
pols_snp_unemployment
```

    ## # A tibble: 822 x 11
    ##    year  month gov_gop sen_gop rep_gop gov_dem sen_dem rep_dem president
    ##    <chr> <chr>   <dbl>   <dbl>   <dbl>   <dbl>   <dbl>   <dbl> <chr>    
    ##  1 1947  Jan        23      51     253      23      45     198 dem      
    ##  2 1947  Feb        23      51     253      23      45     198 dem      
    ##  3 1947  Mar        23      51     253      23      45     198 dem      
    ##  4 1947  Apr        23      51     253      23      45     198 dem      
    ##  5 1947  May        23      51     253      23      45     198 dem      
    ##  6 1947  Jun        23      51     253      23      45     198 dem      
    ##  7 1947  Jul        23      51     253      23      45     198 dem      
    ##  8 1947  Aug        23      51     253      23      45     198 dem      
    ##  9 1947  Sep        23      51     253      23      45     198 dem      
    ## 10 1947  Oct        23      51     253      23      45     198 dem      
    ## # … with 812 more rows, and 2 more variables: close <dbl>,
    ## #   unemployment_rate <dbl>
…
